rebecca barter purrr
…
## # A tibble: 5 x 2
## # Groups:   continent [5]
##   continent           data
##   <fct>     <list<df[,5]>>
## 1 Asia           [396 × 5]
## 2 Europe         [360 × 5]
## 3 Africa         [624 × 5]
## 4 Americas       [300 × 5]
## 5 Oceania         [24 × 5]

gapminder_nested$data[[1]]

## # A tibble: 396 x 5
##    country      year      pop lifeExp gdpPercap
##    <fct>       <int>    <dbl>   <dbl>     <dbl>
##  1 Afghanistan  1952  8425333    28.8      779.
##  2 Afghanistan  1957  9240934    30.3      821.
##  3 Afghanistan  1962 10267083    32.0      853.
##  4 Afghanistan  1967 11537966    34.0      836.
##  5 Afghanistan  1972 13079460    36.1      740.
##  6 Afghanistan  1977 14880372    38.4      786.
##  7 Afghanistan  1982 12881816    39.9      978.
##  8 Afghanistan  1987 13867957    40.8      852.
##  9 Afghanistan  1992 16317921    41.7      649.
## 10 Afghanistan  1997 22227415    41.8      635.
## # … with 386 more rows

dplyr pluck will pull the first entry, which is asia

gapminder_nested %>% 
  # extract the first entry from the data column
  pluck("data", 1)

## # A tibble: 396 x 5
##    country      year      pop lifeExp gdpPercap
##    <fct>       <int>    <dbl>   <dbl>     <dbl>
##  1 Afghanistan  1952  8425333    28.8      779.
##  2 Afghanistan  1957  9240934    30.3      821.
##  3 Afghanistan  1962 10267083    32.0      853.
##  4 Afghanistan  1967 11537966    34.0      836.
##  5 Afghanistan  1972 13079460    36.1      740.
##  6 Afghanistan  1977 14880372    38.4      786.
##  7 Afghanistan  1982 12881816    39.9      978.
##  8 Afghanistan  1987 13867957    40.8      852.
##  9 Afghanistan  1992 16317921    41.7      649.
## 10 Afghanistan  1997 22227415    41.8      635.
## # … with 386 more rows

pluck 5 is oceania

gapminder_nested %>% pluck("data", 5)

## # A tibble: 24 x 5
##    country    year      pop lifeExp gdpPercap
##    <fct>     <int>    <dbl>   <dbl>     <dbl>
##  1 Australia  1952  8691212    69.1    10040.
##  2 Australia  1957  9712569    70.3    10950.
##  3 Australia  1962 10794968    70.9    12217.
##  4 Australia  1967 11872264    71.1    14526.
##  5 Australia  1972 13177000    71.9    16789.
##  6 Australia  1977 14074100    73.5    18334.
##  7 Australia  1982 15184200    74.7    19477.
##  8 Australia  1987 16257249    76.3    21889.
##  9 Australia  1992 17481977    77.6    23425.
## 10 Australia  1997 18565243    78.8    26998.
## # … with 14 more rows
…
