lubridate parsing dates automatically
…
## Rows: 21
## Columns: 3
## $ free_date        <list> "30 June 1978", "17 Feb, 2011", "March 25 2014", "19…
## $ template_date    <dttm> 1978-06-30, 2011-02-17, 2014-03-25, 1977-07-11, 1981…
## $ free_date_parsed <dttm> 1978-06-30, 2011-02-17, 2014-03-25, 1977-07-11, 1981…

Wow- that is pretty impressive, only 1 failed to parse. The only date that failed was the one entry that didn’t have a year (i.e. Aug 21). But were there any errors?

Let’s compare the free_date to the template_date. If there is any time between them, something went wrong with the parse_date_time(). Use mutate to make a new variable subtracting one date from the other.

# make a new variable to check whether there is any difference between free and template date
free_template %>%
  mutate(date_check = free_date_parsed - template_date)

## # A tibble: 21 x 4
##    free_date template_date       free_date_parsed    date_check     
##    <list>    <dttm>              <dttm>              <drtn>         
##  1 <chr [1]> 1978-06-30 00:00:00 1978-06-30 00:00:00          0 secs
##  2 <chr [1]> 2011-02-17 00:00:00 2011-02-17 00:00:00          0 secs
##  3 <chr [1]> 2014-03-25 00:00:00 2014-03-25 00:00:00          0 secs
##  4 <chr [1]> 1977-07-11 00:00:00 1977-07-11 00:00:00          0 secs
##  5 <chr [1]> 1981-09-04 00:00:00 1981-09-04 00:00:00          0 secs
##  6 <chr [1]> 1987-07-11 00:00:00 1987-07-11 00:00:00          0 secs
##  7 <chr [1]> 1977-09-11 00:00:00 1977-09-11 00:00:00          0 secs
##  8 <chr [1]> 1967-07-06 00:00:00 2067-07-06 00:00:00 3155760000 secs
##  9 <chr [1]> 1979-05-02 00:00:00 1979-05-02 00:00:00          0 secs
## 10 <chr [1]> 1982-03-28 00:00:00 1982-03-28 00:00:00          0 secs
## # … with 11 more rows
…
