…
Let's compare the free_date to the template_date. If there is any time between them, something went wrong with the `parse_date_time()`. Use mutate to make a new variable subtracting one date from the other. 


```r
# make a new variable to check whether there is any difference between free and template date
free_template %>%
  mutate(date_check = free_date_parsed - template_date)
```

```
## # A tibble: 21 x 4
##    free_date template_date       free_date_parsed    date_check     
##    <list>    <dttm>              <dttm>              <drtn>         
##  1 <chr [1]> 1978-06-30 00:00:00 1978-06-30 00:00:00          0 secs
##  2 <chr [1]> 2011-02-17 00:00:00 2011-02-17 00:00:00          0 secs
##  3 <chr [1]> 2014-03-25 00:00:00 2014-03-25 00:00:00          0 secs
##  4 <chr [1]> 1977-07-11 00:00:00 1977-07-11 00:00:00          0 secs
##  5 <chr [1]> 1981-09-04 00:00:00 1981-09-04 00:00:00          0 secs
##  6 <chr [1]> 1987-07-11 00:00:00 1987-07-11 00:00:00          0 secs
##  7 <chr [1]> 1977-09-11 00:00:00 1977-09-11 00:00:00          0 secs
##  8 <chr [1]> 1967-07-06 00:00:00 2067-07-06 00:00:00 3155760000 secs
##  9 <chr [1]> 1979-05-02 00:00:00 1979-05-02 00:00:00          0 secs
## 10 <chr [1]> 1982-03-28 00:00:00 1982-03-28 00:00:00          0 secs
## # … with 11 more rows
```
…
